<svg width="174" height="170" viewBox="0 0 174 170" fill="none" xmlns="http://www.w3.org/2000/svg">
<path d="M60.572 6.97206C63.9538 3.44888 69.5284 3.26564 73.1343 6.55913L92.2811 24.0469C92.7527 24.4776 93.1062 25.0217 93.3081 25.6276V25.6276C93.4352 26.0092 93.5 26.4087 93.5 26.8109L93.5 27.7037L93.5 29.7037L93.5 30.0962C93.5 30.8317 93.4098 31.5645 93.2315 32.2781L93.0002 33.2037L92.8278 33.7207C92.6102 34.3731 92.3067 34.9936 91.9252 35.5659V35.5659C91.6424 35.99 91.3184 36.3852 90.958 36.7457L90.5 37.2037L89.5 38.2037L64.3104 62.9934C60.8087 66.4396 60.7177 72.0573 64.106 75.615L88.0001 100.704L90.0479 102.751C90.349 103.053 90.6284 103.375 90.8839 103.715L91.3404 104.324C91.7773 104.907 92.1175 105.556 92.3478 106.247L92.4183 106.458C92.4728 106.622 92.5388 106.781 92.6158 106.935V106.935C92.8685 107.441 93.0001 107.998 93.0001 108.563L93.0001 108.889C93.0001 109.429 92.9131 109.965 92.7425 110.477L92.5754 110.978C92.1964 112.115 91.5751 113.156 90.7543 114.029L75.6576 130.092C72.2281 133.741 66.4797 133.889 62.8671 130.421L6.49274 76.3072C2.90685 72.8651 2.79026 67.1678 6.23234 63.5819L60.572 6.97206Z" fill="#44AE46"/>
<path d="M110.343 38.7667C106.867 35.3498 101.302 35.3219 97.791 38.7038L80.0625 55.7814C79.5683 56.2575 79.1521 56.8085 78.8295 57.4142L78.7143 57.6305C78.2491 58.5037 78.0227 59.4843 78.0581 60.4732V60.4732L78.1302 62.4859L78.1448 62.8929C78.171 63.6252 78.2865 64.3515 78.4888 65.0558L78.7592 65.9968L78.9502 66.5103C79.1934 67.164 79.5217 67.7827 79.9266 68.3506V68.3506C80.226 68.7705 80.5657 69.1603 80.9408 69.5143L81.419 69.9657L82.4613 70.9495L108.794 95.414C112.39 98.7557 112.645 104.364 109.367 108.018L86.2223 133.813L84.2414 135.914C83.9454 136.228 83.6724 136.563 83.4244 136.916L82.9937 137.529C82.5738 138.127 82.2541 138.79 82.0472 139.49L81.9841 139.704C81.9351 139.87 81.8743 140.032 81.8022 140.189V140.189C81.5663 140.703 81.454 141.265 81.4742 141.83L81.4863 142.168C81.5057 142.708 81.6115 143.242 81.7998 143.748L81.9908 144.261C82.4119 145.394 83.0711 146.423 83.924 147.279L99.7872 163.196C103.322 166.743 109.071 166.723 112.581 163.152L167.356 107.418C170.84 103.873 170.791 98.175 167.246 94.6909L110.343 38.7667Z" fill="black"/>
</svg>
